{
  "context": "TESTING",
  "created": "2019-01-30T17:07:44.585715Z",
  "id": "50d43e53-c6eb-4e6e-af43-544d246a6776",
  "inputs": [
    {
      "name": "inputs"
    }
  ],
  "outputs": [
    {
      "data": "steps.5.produce",
      "name": "output predictions"
    }
  ],
  "schema": "https://metadata.datadrivendiscovery.org/schemas/v0/pipeline.json",
  "steps": [
    {
      "arguments": {
        "inputs": {
          "data": "inputs.0",
          "type": "CONTAINER"
        }
      },
      "outputs": [
        {
          "id": "produce"
        }
      ],
      "primitive": {
        "id": "4b42ce1e-9b98-4a25-b68e-fad13311eb65",
        "name": "Extract a DataFrame from a Dataset",
        "python_path": "d3m.primitives.data_transformation.dataset_to_dataframe.Common",
        "version": "0.3.0"
      },
      "type": "PRIMITIVE"
    },
    {
      "arguments": {
          "inputs": {
              "data": "steps.0.produce",
              "type": "CONTAINER"
          }
      },
      "hyperparams": {
               "overwrite": {
                   "data": true,
                   "type": "VALUE"
               }
           },
      "outputs": [
          {
              "id": "produce"
          }
      ],
      "primitive": {
          "id": "d2fa8df2-6517-3c26-bafc-87b701c4043a",
          "name": "simon",
          "python_path": "d3m.primitives.data_cleaning.column_type_profiler.Simon",
          "version": "1.2.1"
      },
      "type": "PRIMITIVE"
    },
    {
      "arguments": {
        "inputs": {
          "data": "steps.1.produce",
          "type": "CONTAINER"
        }
      },
      "outputs": [
        {
          "id": "produce"
        }
      ],
      "primitive": {
        "id": "d510cb7a-1782-4f51-b44c-58f0236e47c7",
        "name": "Parses strings into their types",
        "python_path": "d3m.primitives.data_transformation.column_parser.DataFrameCommon",
        "version": "0.5.0"
      },
      "type": "PRIMITIVE"
    },
    {
      "arguments": {
        "inputs": {
          "data": "steps.2.produce",
          "type": "CONTAINER"
        }
      },
      "hyperparams": {
        "return_result": {
          "data": "replace",
          "type": "VALUE"
        },
        "use_semantic_types": {
          "data": true,
          "type": "VALUE"
        }
      },
      "outputs": [
        {
          "id": "produce"
        }
      ],
      "primitive": {
        "id": "d016df89-de62-3c53-87ed-c06bb6a23cde",
        "name": "sklearn.impute.SimpleImputer",
        "python_path": "d3m.primitives.data_cleaning.imputer.SKlearn",
        "version": "2019.4.4"
      },
      "type": "PRIMITIVE"
    },
    {
      "arguments": {
        "inputs": {
          "data": "steps.3.produce",
          "type": "CONTAINER"
        },
        "outputs": {
          "data": "steps.3.produce",
          "type": "CONTAINER"
        }
      },
      "hyperparams": {
        "add_index_columns": {
          "data": true,
          "type": "VALUE"
        },
        "use_semantic_types": {
          "data": true,
          "type": "VALUE"
        }
      },
      "outputs": [
        {
          "id": "produce"
        }
      ],
      "primitive": {
        "id": "0ae7d42d-f765-3348-a28c-57d94880aa6a",
        "name": "sklearn.svm.classes.SVC",
        "python_path": "d3m.primitives.classification.svc.SKlearn",
        "version": "2019.4.4"
      },
      "type": "PRIMITIVE"
    },
    {
      "arguments": {
        "inputs": {
          "data": "steps.4.produce",
          "type": "CONTAINER"
        },
        "reference": {
          "data": "steps.0.produce",
          "type": "CONTAINER"
        }
      },
      "outputs": [
        {
          "id": "produce"
        }
      ],
      "primitive": {
        "id": "8d38b340-f83f-4877-baaa-162f8e551736",
        "name": "Construct pipeline predictions output",
        "python_path": "d3m.primitives.data_transformation.construct_predictions.DataFrameCommon",
        "version": "0.3.0"
      },
      "type": "PRIMITIVE"
    }
  ]
}
