{
    "id": "05c1e176-80b5-42ad-98a1-9d384c6deb87",
    "schema": "https://metadata.datadrivendiscovery.org/schemas/v0/pipeline.json",
    "created": "2019-03-27T21:41:52.062226Z",
    "inputs": [
        {
            "name": "inputs"
        }
    ],
    "outputs": [
        {
            "data": "steps.18.produce",
            "name": "Output"
        }
    ],
    "steps": [
        {
            "type": "PRIMITIVE",
            "primitive": {
                "id": "4b42ce1e-9b98-4a25-b68e-fad13311eb65",
                "version": "0.3.0",
                "python_path": "d3m.primitives.data_transformation.dataset_to_dataframe.Common",
                "name": "Extract a DataFrame from a Dataset",
                "digest": "789969c6a4a81b25b04c95963721259599f8c43c90a6091e49f44c7fe08f51de"
            },
            "arguments": {
                "inputs": {
                    "type": "CONTAINER",
                    "data": "inputs.0"
                }
            },
            "outputs": [
                {
                    "id": "produce"
                }
            ]
        },
        {
            "type": "PRIMITIVE",
            "primitive": {
                "id": "d510cb7a-1782-4f51-b44c-58f0236e47c7",
                "version": "0.5.0",
                "python_path": "d3m.primitives.data_transformation.column_parser.DataFrameCommon",
                "name": "Parses strings into their types",
                "digest": "f745c190eda8f0fd36e1526e963441dc0c28f3c36218199d3e21145f785a74ad"
            },
            "arguments": {
                "inputs": {
                    "type": "CONTAINER",
                    "data": "steps.0.produce"
                }
            },
            "outputs": [
                {
                    "id": "produce"
                }
            ]
        },
        {
            "type": "PRIMITIVE",
            "primitive": {
                "id": "ebfeb6f0-e366-4082-b1a7-602fd50acc96",
                "version": "0.1.4",
                "python_path": "d3m.primitives.data_preprocessing.random_sampling_imputer.BYU",
                "name": "Random Sampling Imputer",
                "digest": "5588dc61d64ae0442b07f51dbe6504bb340aeabe1e8d06b0e85bb95eaf71c041"
            },
            "arguments": {
                "inputs": {
                    "type": "CONTAINER",
                    "data": "steps.1.produce"
                }
            },
            "outputs": [
                {
                    "id": "produce"
                }
            ]
        },
        {
            "type": "PRIMITIVE",
            "primitive": {
                "id": "4503a4c6-42f7-45a1-a1d4-ed69699cf5e1",
                "version": "0.2.0",
                "python_path": "d3m.primitives.data_transformation.extract_columns_by_semantic_types.DataFrameCommon",
                "name": "Extracts columns by semantic type",
                "digest": "57db870295ef8a63e62429950d7e19c417f07bb9e52124e1f9065b2b0cd55a11"
            },
            "arguments": {
                "inputs": {
                    "type": "CONTAINER",
                    "data": "steps.0.produce"
                }
            },
            "outputs": [
                {
                    "id": "produce"
                }
            ],
            "hyperparams": {
                "semantic_types": {
                    "type": "VALUE",
                    "data": [
                        "https://metadata.datadrivendiscovery.org/types/TrueTarget"
                    ]
                }
            }
        },
        {
            "type": "PRIMITIVE",
            "primitive": {
              "id": "7ddf2fd8-2f7f-4e53-96a7-0d9f5aeecf93",
              "version": "1.5.2",
              "python_path": "d3m.primitives.data_transformation.to_numeric.DSBOX",
              "name": "ISI DSBox To Numeric DataFrame",
              "digest": "571beb63f5a194d54fe181fe938cecfde2e5da70d4c990693c50a83982cab8fc"
            },
            "arguments": {
              "inputs": {
                "type": "CONTAINER",
                "data": "steps.3.produce"
              }
            },
            "outputs": [
              {
                "id": "produce"
              }
            ],
            "hyperparams": {
              "drop_non_numeric_columns": {
                "type": "VALUE",
                "data": false
              }
            }
          },      
        {
            "type": "PRIMITIVE",
            "primitive": {
                "id": "16696c4d-bed9-34a2-b9ae-b882c069512d",
                "version": "2019.4.4",
                "python_path": "d3m.primitives.feature_selection.select_percentile.SKlearn",
                "name": "sklearn.feature_selection.univariate_selection.SelectPercentile",
                "digest": "80ad048c83ca0d3ba00655bc2967867f2f5b899915f6bb17f6d21a0530e34f5a"
            },
            "arguments": {
                "inputs": {
                    "type": "CONTAINER",
                    "data": "steps.2.produce"
                },
                "outputs": {
                    "type": "CONTAINER",
                    "data": "steps.4.produce"
                }
            },
            "outputs": [
                {
                    "id": "produce"
                }
            ],
            "hyperparams": {
                "use_semantic_types": {
                    "type": "VALUE",
                    "data": true
                },
                "return_result": {
                    "type": "VALUE",
                    "data": "replace"
                }
            }
        },
        {
            "type": "PRIMITIVE",
            "primitive": {
                "id": "01d2c086-91bf-3ca5-b023-5139cf239c77",
                "version": "2019.4.4",
                "python_path": "d3m.primitives.classification.gradient_boosting.SKlearn",
                "name": "sklearn.ensemble.gradient_boosting.GradientBoostingClassifier",
                "digest": "1a7a404af2ec3f7fdb07d46cdfb4e31523a2545fbac904bf5b79386faa75db0b"
            },
            "arguments": {
                "inputs": {
                    "type": "CONTAINER",
                    "data": "steps.5.produce"
                },
                "outputs": {
                    "type": "CONTAINER",
                    "data": "steps.5.produce"
                }
            },
            "outputs": [
                {
                    "id": "produce"
                }
            ],
            "hyperparams": {
                "use_semantic_types": {
                    "type": "VALUE",
                    "data": true
                },
                "return_result": {
                    "type": "VALUE",
                    "data": "replace"
                }
            }
        },
        {
            "type": "PRIMITIVE",
            "primitive": {
                "id": "8d38b340-f83f-4877-baaa-162f8e551736",
                "version": "0.3.0",
                "python_path": "d3m.primitives.data_transformation.construct_predictions.DataFrameCommon",
                "name": "Construct pipeline predictions output",
                "digest": "1bcf4fcd4ae79e0cb64033f471d6dbd7aab1ae71a65ed05ee21625e276a3ad0e"
            },
            "arguments": {
                "inputs": {
                    "type": "CONTAINER",
                    "data": "steps.6.produce"
                },
                "reference": {
                    "type": "CONTAINER",
                    "data": "steps.2.produce"
                }
            },
            "outputs": [
                {
                    "id": "produce"
                }
            ]
        },
        {
            "type": "PRIMITIVE",
            "primitive": {
                "id": "16696c4d-bed9-34a2-b9ae-b882c069512d",
                "version": "2019.4.4",
                "python_path": "d3m.primitives.feature_selection.select_percentile.SKlearn",
                "name": "sklearn.feature_selection.univariate_selection.SelectPercentile",
                "digest": "80ad048c83ca0d3ba00655bc2967867f2f5b899915f6bb17f6d21a0530e34f5a"
            },
            "arguments": {
                "inputs": {
                    "type": "CONTAINER",
                    "data": "steps.2.produce"
                },
                "outputs": {
                    "type": "CONTAINER",
                    "data": "steps.4.produce"
                }
            },
            "outputs": [
                {
                    "id": "produce"
                }
            ],
            "hyperparams": {
                "use_semantic_types": {
                    "type": "VALUE",
                    "data": true
                },
                "return_result": {
                    "type": "VALUE",
                    "data": "replace"
                }
            }
        },
        {
            "type": "PRIMITIVE",
            "primitive": {
                "id": "464783a8-771e-340d-999b-ae90b9f84f0b",
                "version": "2019.4.4",
                "python_path": "d3m.primitives.classification.gaussian_naive_bayes.SKlearn",
                "name": "sklearn.naive_bayes.GaussianNB",
                "digest": "d67b3bf01362855c69cb79977ac6677722ce0f5d58253054a383de5361bc45ca"
            },
            "arguments": {
                "inputs": {
                    "type": "CONTAINER",
                    "data": "steps.8.produce"
                },
                "outputs": {
                    "type": "CONTAINER",
                    "data": "steps.8.produce"
                }
            },
            "outputs": [
                {
                    "id": "produce"
                }
            ],
            "hyperparams": {
                "use_semantic_types": {
                    "type": "VALUE",
                    "data": true
                },
                "return_result": {
                    "type": "VALUE",
                    "data": "replace"
                }
            }
        },
        {
            "type": "PRIMITIVE",
            "primitive": {
                "id": "8d38b340-f83f-4877-baaa-162f8e551736",
                "version": "0.3.0",
                "python_path": "d3m.primitives.data_transformation.construct_predictions.DataFrameCommon",
                "name": "Construct pipeline predictions output",
                "digest": "1bcf4fcd4ae79e0cb64033f471d6dbd7aab1ae71a65ed05ee21625e276a3ad0e"
            },
            "arguments": {
                "inputs": {
                    "type": "CONTAINER",
                    "data": "steps.9.produce"
                },
                "reference": {
                    "type": "CONTAINER",
                    "data": "steps.2.produce"
                }
            },
            "outputs": [
                {
                    "id": "produce"
                }
            ]
        },
        {
            "type": "PRIMITIVE",
            "primitive": {
                "id": "16696c4d-bed9-34a2-b9ae-b882c069512d",
                "version": "2019.4.4",
                "python_path": "d3m.primitives.feature_selection.select_percentile.SKlearn",
                "name": "sklearn.feature_selection.univariate_selection.SelectPercentile",
                "digest": "80ad048c83ca0d3ba00655bc2967867f2f5b899915f6bb17f6d21a0530e34f5a"
            },
            "arguments": {
                "inputs": {
                    "type": "CONTAINER",
                    "data": "steps.2.produce"
                },
                "outputs": {
                    "type": "CONTAINER",
                    "data": "steps.4.produce"
                }
            },
            "outputs": [
                {
                    "id": "produce"
                }
            ],
            "hyperparams": {
                "use_semantic_types": {
                    "type": "VALUE",
                    "data": true
                },
                "return_result": {
                    "type": "VALUE",
                    "data": "replace"
                }
            }
        },
        {
            "type": "PRIMITIVE",
            "primitive": {
                "id": "b9c81b40-8ed1-3b23-80cf-0d6fe6863962",
                "version": "2019.4.4",
                "python_path": "d3m.primitives.classification.logistic_regression.SKlearn",
                "name": "sklearn.linear_model.logistic.LogisticRegression",
                "digest": "cdcc79c6cee40349bd0151f5d9a5d3b5913a70f66b18b04053c24c4fc40d449e"
            },
            "arguments": {
                "inputs": {
                    "type": "CONTAINER",
                    "data": "steps.11.produce"
                },
                "outputs": {
                    "type": "CONTAINER",
                    "data": "steps.11.produce"
                }
            },
            "outputs": [
                {
                    "id": "produce"
                }
            ],
            "hyperparams": {
                "use_semantic_types": {
                    "type": "VALUE",
                    "data": true
                },
                "return_result": {
                    "type": "VALUE",
                    "data": "replace"
                }
            }
        },
        {
            "type": "PRIMITIVE",
            "primitive": {
                "id": "8d38b340-f83f-4877-baaa-162f8e551736",
                "version": "0.3.0",
                "python_path": "d3m.primitives.data_transformation.construct_predictions.DataFrameCommon",
                "name": "Construct pipeline predictions output",
                "digest": "1bcf4fcd4ae79e0cb64033f471d6dbd7aab1ae71a65ed05ee21625e276a3ad0e"
            },
            "arguments": {
                "inputs": {
                    "type": "CONTAINER",
                    "data": "steps.12.produce"
                },
                "reference": {
                    "type": "CONTAINER",
                    "data": "steps.2.produce"
                }
            },
            "outputs": [
                {
                    "id": "produce"
                }
            ]
        },
        {
            "type": "PRIMITIVE",
            "primitive": {
                "id": "aff6a77a-faa0-41c5-9595-de2e7f7c4760",
                "version": "0.2.0",
                "python_path": "d3m.primitives.data_transformation.horizontal_concat.DataFrameConcat",
                "name": "Concatenate two dataframes",
                "digest": "9d84d97738d4d5b895f09242951461a1b2f04aae135c1c2987cf3d8021259b1f"
            },
            "arguments": {
                "left": {
                    "type": "CONTAINER",
                    "data": "steps.7.produce"
                },
                "right": {
                    "type": "CONTAINER",
                    "data": "steps.10.produce"
                }
            },
            "outputs": [
                {
                    "id": "produce"
                }
            ]
        },
        {
            "type": "PRIMITIVE",
            "primitive": {
                "id": "aff6a77a-faa0-41c5-9595-de2e7f7c4760",
                "version": "0.2.0",
                "python_path": "d3m.primitives.data_transformation.horizontal_concat.DataFrameConcat",
                "name": "Concatenate two dataframes"
            },
            "arguments": {
                "left": {
                    "type": "CONTAINER",
                    "data": "steps.14.produce"
                },
                "right": {
                    "type": "CONTAINER",
                    "data": "steps.13.produce"
                }
            },
            "outputs": [
                {
                    "id": "produce"
                }
            ]
        },
        {
            "type": "PRIMITIVE",
            "primitive": {
                "id": "7b067a78-4ad4-411d-9cf9-87bcee38ac73",
                "version": "0.2.0",
                "python_path": "d3m.primitives.data_transformation.rename_duplicate_name.DataFrameCommon",
                "name": "Rename all the duplicated name column in DataFrame"
            },
            "arguments": {
                "inputs": {
                    "type": "CONTAINER",
                    "data": "steps.15.produce"
                }
            },
            "outputs": [
                {
                    "id": "produce"
                }
            ]
        },
        {
            "type": "PRIMITIVE",
            "primitive": {
              "id": "dsbox-vertical-concat",
              "version": "1.5.2",
              "python_path": "d3m.primitives.data_preprocessing.vertical_concatenate.DSBOX",
              "name": "DSBox vertically concat",
              "digest": "c30c68e07fee418539b8ba7c5ce14265f68cb9814f5b371b56bea02fd4791f56"
            },
            "arguments": {
              "inputs": {
                "type": "CONTAINER",
                "data": [
                  "steps.7.produce",
                  "steps.10.produce",
                  "steps.13.produce"
                ]
              }
            },
            "outputs": [
              {
                "id": "produce"
              }
            ]
          },
      
        {
            "type": "PRIMITIVE",
            "primitive": {
                "id": "dsbox-ensemble-voting",
                "version": "1.5.1",
                "python_path": "d3m.primitives.classification.ensemble_voting.DSBOX",
                "name": "DSBox ensemble voting"
            },
            "arguments": {
                "inputs": {
                    "type": "CONTAINER",
                    "data": "steps.17.produce"
                }
            },
            "outputs": [
                {
                    "id": "produce"
                }
            ]
        },
        {
            "type": "PRIMITIVE",
            "primitive": {
              "id": "8d38b340-f83f-4877-baaa-162f8e551736",
              "version": "0.3.0",
              "python_path": "d3m.primitives.data_transformation.construct_predictions.DataFrameCommon",
              "name": "Construct pipeline predictions output"
            },
            "arguments": {
              "inputs": {
                "type": "CONTAINER",
                "data": "steps.18.produce"
              },
              "reference": {
                "type": "CONTAINER",
                "data": "steps.2.produce"
              }
            },
            "outputs": [
              {
                "id": "produce"
              }
            ]
          }
    ],
    "digest": "e609fde52ef888c30b3b990bde878e2026d8a3d8d8cf90f7ccff7519f18ca3cf"
}