{
	"id": "bc79a067-4e3f-4066-b31a-db51f3e16564",
	"schema": "https://metadata.datadrivendiscovery.org/schemas/v0/pipeline.json",
	"source": {
		"name": "Uchicago"
	},
	"created": "2018-02-28T09:42:27.443844Z",
	"context": "TESTING",
	"name": "d3m_SmashEmbedding classifier pipeline",
	"description": "A simple pipeline which d3m_SmashEmbedding classifier on tabular data.\n",
	"inputs": [
		{
			"name": "input dataset"
		}
	],
	"outputs": [
		{
			"name": "predictions",
			"data": "steps.5.produce"
		}
	],
	"steps": [
		{
			"type": "PRIMITIVE",
			"primitive": {
				"id": "f31f8c1f-d1c5-43e5-a4b2-2ae4a761ef2e",
				"version": "0.2.0",
				"python_path": "d3m.primitives.data_transformation.denormalize.Common",
				"name": "Denormalize datasets"
			},
			"arguments": {
				"inputs": {
					"type": "CONTAINER",
					"data": "inputs.0"
				}
			},
			"outputs": [
				{
					"id": "produce"
				}
			]
		},
		{
			"type": "PRIMITIVE",
			"primitive": {
				"id": "4b42ce1e-9b98-4a25-b68e-fad13311eb65",
				"version": "0.3.0",
				"python_path": "d3m.primitives.data_transformation.dataset_to_dataframe.Common",
				"name": "Extract a DataFrame from a Dataset"
			},
			"arguments": {
				"inputs": {
					"type": "CONTAINER",
					"data": "steps.0.produce"
				}
			},
			"outputs": [
				{
					"id": "produce"
				}
			]
		},
		{
			"type": "PRIMITIVE",
			"primitive": {
				"id": "d510cb7a-1782-4f51-b44c-58f0236e47c7",
				"version": "0.5.0",
				"python_path": "d3m.primitives.data_transformation.column_parser.DataFrameCommon",
				"name": "Parses strings into their types"
			},
			"arguments": {
				"inputs": {
					"type": "CONTAINER",
					"data": "steps.1.produce"
				}
			},
			"outputs": [
				{
					"id": "produce"
				}
			]
		},
		{
			"type": "PRIMITIVE",
			"primitive": {
				"id": "1df5f748-122f-45a7-aff8-46cf5332c097",
				"version": "0.4.10",
				"python_path": "d3m.primitives.datasmash.d3m_SmashEmbedding",
				"name": "datasmash.d3m_SmashEmbedding"
			},
			"arguments": {
				"inputs": {
					"type": "CONTAINER",
					"data": "steps.0.produce"
				},
				"outputs": {
					"type": "CONTAINER",
					"data": "steps.2.produce"
				}
			},
			"outputs": [
				{
					"id": "produce"
				}
			]
		},
		{
			"type": "PRIMITIVE",
			"primitive": {
				"id": "d510cb7a-1782-4f51-b44c-58f0236e47c7",
				"version": "0.5.0",
				"python_path": "d3m.primitives.data_transformation.column_parser.DataFrameCommon",
				"name": "Parses strings into their types"
			},
			"arguments": {
				"inputs": {
					"type": "CONTAINER",
					"data": "steps.3.produce"
				}
			},
			"outputs": [
				{
					"id": "produce"
				}
			]
		},
		{
			"type": "PRIMITIVE",
			"primitive": {
				"id": "37c2b19d-bdab-4a30-ba08-6be49edcc6af",
				"version": "0.4.0",
				"python_path": "d3m.primitives.classification.random_forest.DataFrameCommon",
				"name": "Random forest classifier"
			},
			"arguments": {
				"inputs": {
					"type": "CONTAINER",
					"data": "steps.4.produce"
				},
				"outputs": {
					"type": "CONTAINER",
					"data": "steps.2.produce"
				}
			},
			"outputs": [
				{
					"id": "produce"
				}
			],
			"hyperparams": {
				"return_result": {
					"type": "VALUE",
					"data": "new"
				}
			}
		},
		{
			"type": "PRIMITIVE",
			"primitive": {
				"id": "8d38b340-f83f-4877-baaa-162f8e551736",
				"version": "0.3.0",
				"python_path": "d3m.primitives.data_transformation.construct_predictions.DataFrameCommon",
				"name": "Construct pipeline predictions output"
			},
			"arguments": {
				"inputs": {
					"type": "CONTAINER",
					"data": "steps.5.produce"
				},
				"reference": {
					"type": "CONTAINER",
					"data": "steps.2.produce"
				}
			},
			"outputs": [
				{
					"id": "produce"
				}
			]
		}
	]
}