{
    "id":"eabef680-8659-4486-8303-e2c8e78a53a0",
    "schema":"https://metadata.datadrivendiscovery.org/schemas/v0/pipeline.json",
    "created":"2020-02-12T00:36:05.584374Z",
    "inputs":[
        {
            "name":"input dataset"
        }
    ],
    "outputs":[
        {
            "data":"steps.7.produce",
            "name":"predictions of input dataset"
        }
    ],
    "steps":[
        {
            "type":"PRIMITIVE",
            "primitive":{
                "id":"f31f8c1f-d1c5-43e5-a4b2-2ae4a761ef2e",
                "version":"0.2.0",
                "python_path":"d3m.primitives.data_transformation.denormalize.Common",
                "name":"Denormalize datasets",
                "digest":"6c1cc604302d7418145f405efe5ae124755cab6da2b66cb53240b74e2b140a1e"
            },
            "arguments":{
                "inputs":{
                    "type":"CONTAINER",
                    "data":"inputs.0"
                }
            },
            "outputs":[
                {
                    "id":"produce"
                }
            ]
        },
        {
            "type":"PRIMITIVE",
            "primitive":{
                "id":"4b42ce1e-9b98-4a25-b68e-fad13311eb65",
                "version":"0.3.0",
                "python_path":"d3m.primitives.data_transformation.dataset_to_dataframe.Common",
                "name":"Extract a DataFrame from a Dataset",
                "digest":"990784f527a78250fcab70af9714314490e91f9a5916eb38834d74e8c38f435b"
            },
            "arguments":{
                "inputs":{
                    "type":"CONTAINER",
                    "data":"steps.0.produce"
                }
            },
            "outputs":[
                {
                    "id":"produce"
                }
            ]
        },
        {
            "type":"PRIMITIVE",
            "primitive":{
                "id":"4503a4c6-42f7-45a1-a1d4-ed69699cf5e1",
                "version":"0.4.0",
                "python_path":"d3m.primitives.data_transformation.extract_columns_by_semantic_types.Common",
                "name":"Extracts columns by semantic type",
                "digest":"591d3ee40b266bda04fa345aeea7b56d81db182fb144cde164e02be019a05f10"
            },
            "arguments":{
                "inputs":{
                    "type":"CONTAINER",
                    "data":"steps.1.produce"
                }
            },
            "outputs":[
                {
                    "id":"produce"
                }
            ],
            "hyperparams":{
                "semantic_types":{
                    "type":"VALUE",
                    "data":[
                        "https://metadata.datadrivendiscovery.org/types/TrueTarget"
                    ]
                }
            }
        },
        {
            "type":"PRIMITIVE",
            "primitive":{
                "id":"7ddf2fd8-2f7f-4e53-96a7-0d9f5aeecf93",
                "version":"1.5.3",
                "python_path":"d3m.primitives.data_transformation.to_numeric.DSBOX",
                "name":"ISI DSBox To Numeric DataFrame",
                "digest":"7f92c7ad8efa978ae1dcda8f3c7fb9cdea0f269d08c329557f3ffcb82193f73b"
            },
            "arguments":{
                "inputs":{
                    "type":"CONTAINER",
                    "data":"steps.2.produce"
                }
            },
            "outputs":[
                {
                    "id":"produce"
                }
            ],
            "hyperparams":{
                "drop_non_numeric_columns":{
                    "type":"VALUE",
                    "data":false
                }
            }
        },
        {
            "type":"PRIMITIVE",
            "primitive":{
                "id":"dsbox-featurizer-image-dataframe-to-tensor",
                "version":"1.5.3",
                "python_path":"d3m.primitives.data_preprocessing.dataframe_to_tensor.DSBOX",
                "name":"DSBox Image Featurizer dataframe to tensor transformer",
                "digest":"d4ac4cf79001f02eddbf2febfc0ad88f112441360249ceca8d3b29fd81ca5f0a"
            },
            "arguments":{
                "inputs":{
                    "type":"CONTAINER",
                    "data":"steps.1.produce"
                }
            },
            "outputs":[
                {
                    "id":"produce"
                }
            ]
        },
        {
            "type":"PRIMITIVE",
            "primitive":{
                "id":"dsbox-featurizer-image-vgg16",
                "version":"1.5.3",
                "python_path":"d3m.primitives.feature_extraction.vgg16_image_feature.DSBOX",
                "name":"DSBox Image Featurizer VGG16",
                "digest":"2a7fef54a9accf7a708afdd3a22c36f722efade9289674c7c8be82fa64d6aefc"
            },
            "arguments":{
                "inputs":{
                    "type":"CONTAINER",
                    "data":"steps.4.produce"
                }
            },
            "outputs":[
                {
                    "id":"produce"
                }
            ],
            "hyperparams":{
                "generate_metadata":{
                    "type":"VALUE",
                    "data":true
                }
            }
        },
        {
            "type":"PRIMITIVE",
            "primitive":{
                "id":"2fb28cd1-5de6-3663-a2dc-09c786fba7f4",
                "version":"2019.11.13",
                "python_path":"d3m.primitives.feature_extraction.pca.SKlearn",
                "name":"sklearn.decomposition.pca.PCA",
                "digest":"e3bb66578a58a650d58715d327257d80ae7c86ac2b0df75ca5fb9019ab43f8e9"
            },
            "arguments":{
                "inputs":{
                    "type":"CONTAINER",
                    "data":"steps.5.produce"
                }
            },
            "outputs":[
                {
                    "id":"produce"
                }
            ],
            "hyperparams":{
                "add_index_columns":{
                    "type":"VALUE",
                    "data":true
                },
                "use_semantic_types":{
                    "type":"VALUE",
                    "data":true
                }
            }
        },
        {
            "type":"PRIMITIVE",
            "primitive":{
                "id":"2fb16403-8509-3f02-bdbf-9696e2fcad55",
                "version":"2019.11.13",
                "python_path":"d3m.primitives.regression.ridge.SKlearn",
                "name":"sklearn.linear_model.ridge.Ridge",
                "digest":"e35a19e9a292d24ed93d89e36953b830d68fb25791dad3606f670fa2affccaae"
            },
            "arguments":{
                "inputs":{
                    "type":"CONTAINER",
                    "data":"steps.6.produce"
                },
                "outputs":{
                    "type":"CONTAINER",
                    "data":"steps.3.produce"
                }
            },
            "outputs":[
                {
                    "id":"produce"
                }
            ],
            "hyperparams":{
                "add_index_columns":{
                    "type":"VALUE",
                    "data":true
                }
            }
        }
    ],
    "name":"TA1ImageProcessingRegressionTemplate2:140614521169672",
    "description":"",
    "digest":"68d693ee5fdb9494784109374728c9b9f6aca697075cf9536251fa628207b32e"
}