{
    "created": "2020-06-23T00:00:00.000000Z",
    "digest": "e00154e8edda049f4e44b39172e052a0ee5bbe967df0e5b110c262e3e8e71875",
    "id": "75642943-64c6-478a-b300-b9104abd7d3d",
    "inputs": [
        {
            "name": "input dataset"
        }
    ],
    "name": "/opt2/cc/bbn_run_cc_pipeline.json",
    "outputs": [
        {
            "data": "steps.14.produce",
            "name": "output predictions"
        }
    ],
    "pipeline_rank": 1,
    "schema": "https://metadata.datadrivendiscovery.org/schemas/v0/pipeline.json",
    "steps": [
        {
            "arguments": {
                "inputs": {
                    "data": "inputs.0",
                    "type": "CONTAINER"
                }
            },
            "outputs": [
                {
                    "id": "produce"
                }
            ],
            "primitive": {
                "digest": "83134046662d7fefa574f39bf0545fd475bc694740edacaa87b15557ee4a5a1f",
                "id": "952b659c-d290-465b-9e89-160947e29c06",
                "name": "Targets Reader",
                "python_path": "d3m.primitives.data_preprocessing.targets_reader.TargetsReader",
                "version": "0.1.4"
            },
            "type": "PRIMITIVE"
        },
        {
            "arguments": {
                "inputs": {
                    "data": "inputs.0",
                    "type": "CONTAINER"
                }
            },
            "hyperparams": {
                "read_as_mono": {
                    "data": true,
                    "type": "VALUE"
                },
                "resampling_rate": {
                    "data": 1.0,
                    "type": "VALUE"
                }
            },
            "outputs": [
                {
                    "id": "produce"
                }
            ],
            "primitive": {
                "digest": "6e74b582052386ce820bdc960f79c98aaf90bf6dc7b26a7bf660dd59372680af",
                "id": "a771e153-67d7-4f69-b5f9-1a764e502a23",
                "name": "CSV Reader",
                "python_path": "d3m.primitives.data_preprocessing.csv_reader.CSVReader",
                "version": "0.1.4"
            },
            "type": "PRIMITIVE"
        },
        {
            "arguments": {
                "inputs": {
                    "data": "steps.1.produce",
                    "type": "CONTAINER"
                }
            },
            "outputs": [
                {
                    "id": "produce"
                }
            ],
            "primitive": {
                "digest": "d12bf7c93ba9619705bf621684435b67ec9fc93be49230a50a28febc982d6f31",
                "id": "35afd4db-e11d-4e2d-a780-9e123b752bd7",
                "name": "Channel Averager",
                "python_path": "d3m.primitives.data_preprocessing.channel_averager.ChannelAverager",
                "version": "0.1.4"
            },
            "type": "PRIMITIVE"
        },
        {
            "arguments": {
                "inputs": {
                    "data": "steps.2.produce",
                    "type": "CONTAINER"
                }
            },
            "hyperparams": {
                "level": {
                    "data": 0.0001,
                    "type": "VALUE"
                },
                "reseed": {
                    "data": true,
                    "type": "VALUE"
                }
            },
            "outputs": [
                {
                    "id": "produce"
                }
            ],
            "primitive": {
                "digest": "bddaf01089ab5a511d6ef3d4b7e7ccc4d8b9168fdd8c7b8b76e47cc77ff1ac37",
                "id": "1ea935ec-e767-4a18-bbd5-b5f66855f4f3",
                "name": "Signal Dithering",
                "python_path": "d3m.primitives.data_preprocessing.signal_dither.SignalDither",
                "version": "0.1.4"
            },
            "type": "PRIMITIVE"
        },
        {
            "arguments": {
                "inputs": {
                    "data": "steps.3.produce",
                    "type": "CONTAINER"
                }
            },
            "hyperparams": {
                "flatten_output": {
                    "data": false,
                    "type": "VALUE"
                },
                "frame_length_s": {
                    "data": 100,
                    "type": "VALUE"
                },
                "frame_shift_s": {
                    "data": 0.1,
                    "type": "VALUE"
                }
            },
            "outputs": [
                {
                    "id": "produce"
                }
            ],
            "primitive": {
                "digest": "7b92bca17ce53d2bc53a8af3f47e4c5bbc3d87aa26aec6fc1799049e3e1993cf",
                "id": "4d7160ef-ca70-4150-b513-36b90817ba45",
                "name": "Signal Framing",
                "python_path": "d3m.primitives.time_series_segmentation.signal_framer.SignalFramer",
                "version": "0.1.4"
            },
            "type": "PRIMITIVE"
        },
        {
            "arguments": {
                "inputs": {
                    "data": "steps.4.produce",
                    "type": "CONTAINER"
                }
            },
            "hyperparams": {
                "cep_lifter": {
                    "data": 22.0,
                    "type": "VALUE"
                },
                "frame_mean_norm": {
                    "data": false,
                    "type": "VALUE"
                },
                "nfft": {
                    "data": null,
                    "type": "VALUE"
                },
                "num_ceps": {
                    "data": 3,
                    "type": "VALUE"
                },
                "num_chans": {
                    "data": 20,
                    "type": "VALUE"
                },
                "preemcoef": {
                    "data": null,
                    "type": "VALUE"
                },
                "use_power": {
                    "data": false,
                    "type": "VALUE"
                }
            },
            "outputs": [
                {
                    "id": "produce"
                }
            ],
            "primitive": {
                "digest": "fa2fe144446cbf250273e998efd9fc1487c0815dc01f790ee4f59a06916fbec4",
                "id": "a184a1d1-3187-4d1f-99c6-e1d5665c2c99",
                "name": "MFCC Feature Extraction",
                "python_path": "d3m.primitives.feature_extraction.signal_mfcc.SignalMFCC",
                "version": "0.1.4"
            },
            "type": "PRIMITIVE"
        },
        {
            "arguments": {
                "inputs": {
                    "data": "steps.5.produce",
                    "type": "CONTAINER"
                }
            },
            "hyperparams": {
                "seg_len": {
                    "data": 5,
                    "type": "VALUE"
                },
                "seg_shift": {
                    "data": null,
                    "type": "VALUE"
                }
            },
            "outputs": [
                {
                    "id": "produce"
                }
            ],
            "primitive": {
                "digest": "395024a7530850acf06ae92d317afd500f5e42909f30c7db66a57bcf5b9c3188",
                "id": "2a6f820a-3943-4bb7-a580-689a91c338f3",
                "name": "Uniform Segmentation",
                "python_path": "d3m.primitives.time_series_segmentation.uniform_segmentation.UniformSegmentation",
                "version": "0.1.4"
            },
            "type": "PRIMITIVE"
        },
        {
            "arguments": {
                "inputs": {
                    "data": "steps.6.produce",
                    "type": "CONTAINER"
                }
            },
            "hyperparams": {
                "deg": {
                    "data": 2,
                    "type": "VALUE"
                }
            },
            "outputs": [
                {
                    "id": "produce"
                }
            ],
            "primitive": {
                "digest": "54e0a4ae8eaa5dc9dc2f57415a9a35f86e00c227d4b8623d9b6856c8897e6364",
                "id": "7c1d88a3-2388-4ba8-97c6-aa0aa2673024",
                "name": "Segment Curve Fitter",
                "python_path": "d3m.primitives.data_transformation.segment_curve_fitter.SegmentCurveFitter",
                "version": "0.1.4"
            },
            "type": "PRIMITIVE"
        },
        {
            "arguments": {
                "inputs": {
                    "data": "steps.7.produce",
                    "type": "CONTAINER"
                }
            },
            "hyperparams": {
                "max_iter": {
                    "data": 300,
                    "type": "VALUE"
                },
                "n_clusters": {
                    "data": 32,
                    "type": "VALUE"
                },
                "n_init": {
                    "data": 10,
                    "type": "VALUE"
                }
            },
            "outputs": [
                {
                    "id": "produce"
                }
            ],
            "primitive": {
                "digest": "288e73c85bdff630da8cd9b662220b9f579528b1b853e69f377dbd183f669f56",
                "id": "b358a1fd-8bf8-4991-935f-2f1806dae54d",
                "name": "Clustering for Curve Fitting",
                "python_path": "d3m.primitives.clustering.cluster_curve_fitting_kmeans.ClusterCurveFittingKMeans",
                "version": "0.1.4"
            },
            "type": "PRIMITIVE"
        },
        {
            "arguments": {
                "inputs": {
                    "data": "steps.8.produce",
                    "type": "CONTAINER"
                }
            },
            "hyperparams": {
                "flatten_output": {
                    "data": false,
                    "type": "VALUE"
                },
                "frame_length_s": {
                    "data": 1,
                    "type": "VALUE"
                },
                "frame_shift_s": {
                    "data": 1,
                    "type": "VALUE"
                }
            },
            "outputs": [
                {
                    "id": "produce"
                }
            ],
            "primitive": {
                "digest": "7b92bca17ce53d2bc53a8af3f47e4c5bbc3d87aa26aec6fc1799049e3e1993cf",
                "id": "4d7160ef-ca70-4150-b513-36b90817ba45",
                "name": "Signal Framing",
                "python_path": "d3m.primitives.time_series_segmentation.signal_framer.SignalFramer",
                "version": "0.1.4"
            },
            "type": "PRIMITIVE"
        },
        {
            "arguments": {
                "inputs": {
                    "data": "steps.9.produce",
                    "type": "CONTAINER"
                }
            },
            "outputs": [
                {
                    "id": "produce"
                }
            ],
            "primitive": {
                "digest": "222a79a463ec67f3533efeb376124c311c7c0031caffd1ca33be263274fb2095",
                "id": "bdcceba0-b6bd-4611-92de-225e3353f07d",
                "name": "Sequence to Bag-of-Tokens transformer",
                "python_path": "d3m.primitives.data_transformation.sequence_to_bag_of_tokens.SequenceToBagOfTokens",
                "version": "0.1.4"
            },
            "type": "PRIMITIVE"
        },
        {
            "arguments": {
                "inputs": {
                    "data": "steps.10.produce",
                    "type": "CONTAINER"
                }
            },
            "hyperparams": {
                "norm": {
                    "data": "l2",
                    "type": "VALUE"
                },
                "smooth_idf": {
                    "data": true,
                    "type": "VALUE"
                },
                "sublinear_tf": {
                    "data": true,
                    "type": "VALUE"
                },
                "use_idf": {
                    "data": true,
                    "type": "VALUE"
                }
            },
            "outputs": [
                {
                    "id": "produce"
                }
            ],
            "primitive": {
                "digest": "2f974e17d86910d4befeca771cf0677a94b6e86cf624faf6a2da232c94c73c0d",
                "id": "fefcb78f-c2f5-4557-a23b-0910b2127769",
                "name": "Tfidf Transformer",
                "python_path": "d3m.primitives.feature_extraction.tfidf_vectorizer.BBNTfidfTransformer",
                "version": "0.1.4"
            },
            "type": "PRIMITIVE"
        },
        {
            "arguments": {
                "inputs": {
                    "data": "steps.11.produce",
                    "type": "CONTAINER"
                },
                "outputs": {
                    "data": "steps.0.produce",
                    "type": "CONTAINER"
                }
            },
            "hyperparams": {
                "activation": {
                    "data": "relu",
                    "type": "VALUE"
                },
                "add_index_columns": {
                    "data": true,
                    "type": "VALUE"
                },
                "alpha": {
                    "data": 0.0001,
                    "type": "VALUE"
                },
                "beta_1": {
                    "data": 0.9,
                    "type": "VALUE"
                },
                "beta_2": {
                    "data": 0.999,
                    "type": "VALUE"
                },
                "early_stopping": {
                    "data": true,
                    "type": "VALUE"
                },
                "epsilon": {
                    "data": 1e-08,
                    "type": "VALUE"
                },
                "exclude_columns": {
                    "data": [],
                    "type": "VALUE"
                },
                "hidden_layer_sizes": {
                    "data": {
                        "encoding": "pickle",
                        "value": "gANjY29weXJlZwpfcmVjb25zdHJ1Y3RvcgpxAGNkM20uY29udGFpbmVyLmxpc3QKTGlzdApxAWNidWlsdGlucwpsaXN0CnECXXEDKEvIS8hlh3EEUnEFfXEGWAgAAABtZXRhZGF0YXEHY2QzbS5tZXRhZGF0YS5iYXNlCkRhdGFNZXRhZGF0YQpxCCmBcQl9cQooWBEAAABfY3VycmVudF9tZXRhZGF0YXELY2QzbS5tZXRhZGF0YS5iYXNlCk1ldGFkYXRhRW50cnkKcQwpgXENTn1xDihYCAAAAGVsZW1lbnRzcQ9jZDNtLnV0aWxzCnBtYXAKcRB9cRGFcRJScRNYDAAAAGFsbF9lbGVtZW50c3EUTmgHY2Zyb3plbmRpY3QKRnJvemVuT3JkZXJlZERpY3QKcRUpgXEWfXEXKFgFAAAAX2RpY3RxGGNjb2xsZWN0aW9ucwpPcmRlcmVkRGljdApxGSlScRpYBQAAAF9oYXNocRtOdWJYCAAAAGlzX2VtcHR5cRyIWBEAAABpc19lbGVtZW50c19lbXB0eXEdiHWGcR5iaBtOdWJzYi4="
                    },
                    "type": "VALUE"
                },
                "learning_rate": {
                    "data": "constant",
                    "type": "VALUE"
                },
                "learning_rate_init": {
                    "data": 0.1,
                    "type": "VALUE"
                },
                "max_iter": {
                    "data": 200,
                    "type": "VALUE"
                },
                "return_result": {
                    "data": "replace",
                    "type": "VALUE"
                },
                "shuffle": {
                    "data": true,
                    "type": "VALUE"
                },
                "solver": {
                    "data": "adam",
                    "type": "VALUE"
                },
                "tol": {
                    "data": 0.0001,
                    "type": "VALUE"
                },
                "use_columns": {
                    "data": [],
                    "type": "VALUE"
                },
                "use_semantic_types": {
                    "data": false,
                    "type": "VALUE"
                },
                "warm_start": {
                    "data": false,
                    "type": "VALUE"
                }
            },
            "outputs": [
                {
                    "id": "produce"
                }
            ],
            "primitive": {
                "digest": "a543b6d41f4edec6d2073a8ec2b746be6c9809817351398d241480435542d320",
                "id": "cdb18166-e2ca-4418-b5a4-fffbe98f7844",
                "name": "BBN MLP Classifier",
                "python_path": "d3m.primitives.classification.mlp.BBNMLPClassifier",
                "version": "0.1.4"
            },
            "type": "PRIMITIVE"
        },
        {
            "arguments": {
                "inputs": {
                    "data": "inputs.0",
                    "type": "CONTAINER"
                }
            },
            "outputs": [
                {
                    "id": "produce"
                }
            ],
            "primitive": {
                "digest": "0d46a2c5bc374e305682dc4f1c322518c07638153a8365034a513ea46960802b",
                "id": "4b42ce1e-9b98-4a25-b68e-fad13311eb65",
                "name": "Extract a DataFrame from a Dataset",
                "python_path": "d3m.primitives.data_transformation.dataset_to_dataframe.Common",
                "version": "0.3.0"
            },
            "type": "PRIMITIVE"
        },
        {
            "arguments": {
                "inputs": {
                    "data": "steps.12.produce",
                    "type": "CONTAINER"
                },
                "reference": {
                    "data": "steps.13.produce",
                    "type": "CONTAINER"
                }
            },
            "outputs": [
                {
                    "id": "produce"
                }
            ],
            "primitive": {
                "digest": "cfb2d595652c4ae0d24e67d4cb8e4916c9f3c2753eaccc2935263d054b3682fa",
                "id": "8d38b340-f83f-4877-baaa-162f8e551736",
                "name": "Construct pipeline predictions output",
                "python_path": "d3m.primitives.data_transformation.construct_predictions.DataFrameCommon",
                "version": "0.3.0"
            },
            "type": "PRIMITIVE"
        }
    ]
}
