{
    "id": "27089fb5-4afc-4993-b50a-120d8e0bbe40",
    "schema": "https://metadata.datadrivendiscovery.org/schemas/v0/pipeline.json",
    "created": "2019-06-06T22:14:00.584843Z",
    "inputs": [
        {
            "name": "inputs"
        }
    ],
    "outputs": [
        {
            "data": "steps.0.produce",
            "name": "Predictions"
        }
    ],
    "steps": [
        {
            "type": "PRIMITIVE",
            "primitive": {
                "id": "ff22e721-e4f5-32c9-ab51-b90f32603a56",
                "version": "0.1.0",
                "python_path": "d3m.primitives.graph_matching.seeded_graph_matching.JHU",
                "name": "jhu.sgm",
                "digest": "a321bb9b383e251f20132591a594c1d872227156fff9631ff0a44d6e5f96b17f"
            },
            "arguments": {
                "inputs": {
                    "type": "CONTAINER",
                    "data": "inputs.0"
                }
            },
            "outputs": [
                {
                    "id": "produce"
                }
            ]
        }
    ],
    "digest": "9984a9864b33d7d035da6477f8062b61e05fb88e2cd856bc9fc5054ac874582c"
}