{
    "id":"05e40229-23a5-4ec1-b7fa-297de9f18668",
    "schema":"https://metadata.datadrivendiscovery.org/schemas/v0/pipeline.json",
    "created":"2019-05-05T05:35:39.048366Z",
    "context":"PRETRAINING",
    "inputs":[
        {
            "name":"input dataset"
        }
    ],
    "outputs":[
        {
            "data":"steps.11.produce",
            "name":"predictions of input dataset"
        }
    ],
    "steps":[
        {
            "type":"PRIMITIVE",
            "primitive":{
                "id":"f31f8c1f-d1c5-43e5-a4b2-2ae4a761ef2e",
                "version":"0.2.0",
                "python_path":"d3m.primitives.data_transformation.denormalize.Common",
                "name":"Denormalize datasets"
            },
            "arguments":{
                "inputs":{
                    "type":"CONTAINER",
                    "data":"inputs.0"
                }
            },
            "outputs":[
                {
                    "id":"produce"
                }
            ],
            "hyperparams":{
                "starting_resource":{
                    "type":"VALUE",
                    "data":null
                },
                "recursive":{
                    "type":"VALUE",
                    "data":true
                },
                "many_to_many":{
                    "type":"VALUE",
                    "data":false
                },
                "discard_not_joined_tabular_resources":{
                    "type":"VALUE",
                    "data":false
                }
            }
        },
        {
            "type":"PRIMITIVE",
            "primitive":{
                "id":"4b42ce1e-9b98-4a25-b68e-fad13311eb65", 
                "version":"0.3.0",
                "python_path":"d3m.primitives.data_transformation.dataset_to_dataframe.Common",
                "name":"Extract a DataFrame from a Dataset"
            },
            "arguments":{
                "inputs":{
                    "type":"CONTAINER",
                    "data":"steps.0.produce"
                }
            },
            "outputs":[
                {
                    "id":"produce"
                }
            ]
        },
        {
            "type":"PRIMITIVE",
            "primitive":{
                "id":"e193afa1-b45e-4d29-918f-5bb1fa3b88a7",
                "version":"0.2.0",
                "python_path":"d3m.primitives.schema_discovery.profiler.Common",
                "name":"Determine missing semantic types automatically"
            },
            "arguments":{
                "inputs":{
                    "type":"CONTAINER",
                    "data":"steps.1.produce"
                }
            },
            "outputs":[
                {
                    "id":"produce"
                }
            ]
        },
        {
            "type":"PRIMITIVE",
            "primitive":{
                "id":"4503a4c6-42f7-45a1-a1d4-ed69699cf5e1",
                "version":"0.3.0",
                "python_path":"d3m.primitives.data_transformation.extract_columns_by_semantic_types.Common",
                "name":"Extracts columns by semantic type"
            },
            "arguments":{
                "inputs":{
                    "type":"CONTAINER",
                    "data":"steps.2.produce"
                }
            },
            "outputs":[
                {
                    "id":"produce"
                }
            ],
            "hyperparams":{
                "semantic_types":{
                    "type":"VALUE",
                    "data":[
                        "https://metadata.datadrivendiscovery.org/types/PrimaryKey",
                        "https://metadata.datadrivendiscovery.org/types/Attribute"
                    ]
                }
            }
        },
        {
            "type":"PRIMITIVE",
            "primitive":{
                "id":"4503a4c6-42f7-45a1-a1d4-ed69699cf5e1",
                "version":"0.3.0",
                "python_path":"d3m.primitives.data_transformation.extract_columns_by_semantic_types.Common",
                "name":"Extracts columns by semantic type"
            },
            "arguments":{
                "inputs":{
                    "type":"CONTAINER",
                    "data":"steps.2.produce"
                }
            },
            "outputs":[
                {
                    "id":"produce"
                }
            ],
            "hyperparams":{
                "semantic_types":{
                    "type":"VALUE",
                    "data":[
                        "https://metadata.datadrivendiscovery.org/types/TrueTarget"
                    ]
                }
            }
        },
	{"outputs": [{"id": "produce"}], "primitive": {"python_path": "d3m.primitives.data_preprocessing.label_encoder.Common", "version": "0.2.0", "id": "26fc8fd3-f6b2-4c65-8afb-edb54ed2a3e4", "digest": "05c4618455a4961585ea4c32c396c6a8fec59da30c0bccd33bd369069ecc42fb", "name": "Label encoder with an unseen category"}, "type": "PRIMITIVE", "arguments": {"inputs": {"data": "steps.4.produce", "type": "CONTAINER"}}},
         {
            "type":"PRIMITIVE",
            "primitive":{
                "id":"18f0bb42-6350-3753-8f2d-d1c3da70f279",
                "version":"1.5.3",
                "python_path":"d3m.primitives.data_preprocessing.encoder.DSBOX",
                "name":"ISI DSBox Data Encoder"
            },
            "arguments":{
                "inputs":{
                    "type":"CONTAINER",
                    "data":"steps.3.produce"
                }
            },
            "outputs":[
                {
                    "id":"produce"
                }
            ]
        },
        {
            "type":"PRIMITIVE",
            "primitive":{
                "id":"7ddf2fd8-2f7f-4e53-96a7-0d9f5aeecf93",
                "version":"1.5.3",
                "python_path":"d3m.primitives.data_transformation.to_numeric.DSBOX",
                "name":"ISI DSBox To Numeric DataFrame"
            },
            "arguments":{
                "inputs":{
                    "type":"CONTAINER",
                    "data":"steps.6.produce"
                }
            },
            "outputs":[
                {
                    "id":"produce"
                }
            ]
        },
        {
            "type":"PRIMITIVE",
            "primitive":{
                "id":"7894b699-61e9-3a50-ac9f-9bc510466667",
                "version":"1.5.3",
                "python_path":"d3m.primitives.data_preprocessing.mean_imputation.DSBOX",
                "name":"DSBox Mean Imputer"
            },
            "arguments":{
                "inputs":{
                    "type":"CONTAINER",
                    "data":"steps.7.produce"
                }
            },
            "outputs":[
                {
                    "id":"produce"
                }
            ]
        },
        {
            "type":"PRIMITIVE",
            "primitive":{
                "id":"dsbox-multi-table-feature-scaler",
                "version":"1.5.3",
                "python_path":"d3m.primitives.normalization.iqr_scaler.DSBOX",
                "name":"DSBox feature scaler"
            },
            "arguments":{
                "inputs":{
                    "type":"CONTAINER",
                    "data":"steps.8.produce"
                }
            },
            "outputs":[
                {
                    "id":"produce"
		    }
            ]
        },
        {
            "type":"PRIMITIVE",
            "primitive":{
                "id":"393f9de8-a5b9-4d92-aaff-8808d563b6c4",
                "version":"1.0.0",
                "python_path":"d3m.primitives.feature_construction.echo_ib.DSBOX",
                "name":"Echo"
            },
            "arguments":{
                "inputs":{
                    "type":"CONTAINER",
                    "data":"steps.9.produce"
                },
		"outputs":
            {
                "type":"CONTAINER",
                "data":"steps.5.produce"
            }
            },
            "outputs":[
                {
                    "id":"produce"
                }
            ],
            "hyperparams":{
                "beta":{
                    "type":"VALUE",
                    "data": 0.001
                },
		"n_hidden":{
                    "type":"VALUE",
                    "data": 3
                },
		"activation":{
                    "type":"VALUE",
                    "data":"relu"
                },
                "epochs":{
                    "type":"VALUE",
                    "data": 100
                },
		"task":{
                    "type":"VALUE",
                    "data":"CLASSIFICATION"
                }
            }
        },
        {
        "type":"PRIMITIVE",
        "primitive":{
            "id":"1dd82833-5692-39cb-84fb-2455683075f3",
            "version":"2020.5.26",
            "python_path":"d3m.primitives.classification.random_forest.SKlearn",
            "name":"sklearn.ensemble.forest.RandomForestClassifier"
                },
        "arguments":{
	    "inputs":{
                "type":"CONTAINER",
                "data":"steps.10.produce"
	    },
            "outputs":
	    {
                "type":"CONTAINER",
                "data":"steps.5.produce"
	    }
        },
        "outputs":[
	    {
                "id":"produce"
	    }],
        "hyperparams":{
            "add_index_columns":{
                "type":"VALUE",
                "data":true
            },
            "error_on_no_input":{
                "type":"VALUE",
                "data":false
            },
            "return_result":{
                "type":"VALUE",
                "data":"new"
            },
            "use_semantic_types":{
                "type":"VALUE",
                "data":true
            }
        }
        }
    ],
    "name":"ISI_echo_clf:139758531711192",
    "description":"",
    "metric":"accuracy"
}
