{
    "id": "bdcceba0-b6bd-4611-92de-225e3353f07d",
    "version": "0.1.4",
    "name": "Sequence to Bag-of-Tokens transformer",
    "description": "BBN D3M Sequence to Bag-of-Tokens transformer takes list of sequences of tokens (each token is assumed to be vector/n-gram of discrete symbols) as input,identifies unique tokens and represents sequences by counts of individual tokens (bag of tokens).\nInput: List of arrays with tokens on rows [ num_tokens, symbol_ngram ]\nOutput: Array of bag of tokens of shape [ num_inputs, num_unique_tokens ]\n\nAttributes\n----------\nmetadata:\n    Primitive's metadata. Available as a class attribute.\nlogger:\n    Primitive's logger. Available as a class attribute.\nhyperparams:\n    Hyperparams passed to the constructor.\nrandom_seed:\n    Random seed passed to the constructor.\ndocker_containers:\n    A dict mapping Docker image keys from primitive's metadata to (named) tuples containing\n    container's address under which the container is accessible by the primitive, and a\n    dict mapping exposed ports to ports on that address.\nvolumes:\n    A dict mapping volume keys from primitive's metadata to file and directory paths\n    where downloaded and extracted files are available to the primitive.\ntemporary_directory:\n    An absolute path to a temporary directory a primitive can use to store any files\n    for the duration of the current pipeline run phase. Directory is automatically\n    cleaned up after the current pipeline run phase finishes.",
    "keywords": [],
    "source": {
        "name": "BBN",
        "contact": "mailto:prasannakumar.muthukumar@raytheon.com",
        "uris": [
            "https://github.com/BBN-E/d3m-bbn-primitives/blob/255503255d26deef10e9225f35139cd4ede4dd4d/bbn_primitives/time_series/sequence_to_bot.py",
            "https://github.com/BBN-E/d3m-bbn-primitives.git"
        ]
    },
    "installation": [
        {
            "type": "PIP",
            "package_uri": "git+https://github.com/BBN-E/d3m-bbn-primitives.git@255503255d26deef10e9225f35139cd4ede4dd4d#egg=bbn_primitives"
        }
    ],
    "python_path": "d3m.primitives.data_transformation.sequence_to_bag_of_tokens.SequenceToBagOfTokens",
    "algorithm_types": [
        "DATA_PROFILING"
    ],
    "primitive_family": "DATA_TRANSFORMATION",
    "schema": "https://metadata.datadrivendiscovery.org/schemas/v0/primitive.json",
    "original_python_path": "bbn_primitives.time_series.sequence_to_bot.SequenceToBagOfTokens",
    "primitive_code": {
        "class_type_arguments": {
            "Inputs": "d3m.container.list.List",
            "Outputs": "d3m.container.pandas.DataFrame",
            "Params": "bbn_primitives.time_series.sequence_to_bot.Params",
            "Hyperparams": "bbn_primitives.time_series.sequence_to_bot.Hyperparams"
        },
        "interfaces_version": "2020.5.18",
        "interfaces": [
            "unsupervised_learning.UnsupervisedLearnerPrimitiveBase",
            "base.PrimitiveBase"
        ],
        "hyperparams": {},
        "arguments": {
            "hyperparams": {
                "type": "bbn_primitives.time_series.sequence_to_bot.Hyperparams",
                "kind": "RUNTIME"
            },
            "random_seed": {
                "type": "int",
                "kind": "RUNTIME",
                "default": 0
            },
            "docker_containers": {
                "type": "typing.Union[NoneType, typing.Dict[str, d3m.primitive_interfaces.base.DockerContainer]]",
                "kind": "RUNTIME",
                "default": null
            },
            "timeout": {
                "type": "typing.Union[NoneType, float]",
                "kind": "RUNTIME",
                "default": null
            },
            "iterations": {
                "type": "typing.Union[NoneType, int]",
                "kind": "RUNTIME",
                "default": null
            },
            "produce_methods": {
                "type": "typing.Sequence[str]",
                "kind": "RUNTIME"
            },
            "inputs": {
                "type": "d3m.container.list.List",
                "kind": "PIPELINE"
            },
            "params": {
                "type": "bbn_primitives.time_series.sequence_to_bot.Params",
                "kind": "RUNTIME"
            }
        },
        "class_methods": {},
        "instance_methods": {
            "__init__": {
                "kind": "OTHER",
                "arguments": [
                    "hyperparams",
                    "random_seed",
                    "docker_containers"
                ],
                "returns": "NoneType"
            },
            "fit": {
                "kind": "OTHER",
                "arguments": [
                    "timeout",
                    "iterations"
                ],
                "returns": "d3m.primitive_interfaces.base.CallResult[NoneType]",
                "description": "Arguments\n    - inputs: List( # Data\n                 List( # Segments\n                    [ context0, ..., contextN ], ... # for N-gram\n                 )\n               ),\n\nParameters\n----------\ntimeout:\n    A maximum time this primitive should be fitting during this method call, in seconds.\niterations:\n    How many of internal iterations should the primitive do.\n\nReturns\n-------\nA ``CallResult`` with ``None`` value."
            },
            "fit_multi_produce": {
                "kind": "OTHER",
                "arguments": [
                    "produce_methods",
                    "inputs",
                    "timeout",
                    "iterations"
                ],
                "returns": "d3m.primitive_interfaces.base.MultiCallResult",
                "description": "A method calling ``fit`` and after that multiple produce methods at once.\n\nParameters\n----------\nproduce_methods:\n    A list of names of produce methods to call.\ninputs:\n    The inputs given to ``set_training_data`` and all produce methods.\ntimeout:\n    A maximum time this primitive should take to both fit the primitive and produce outputs\n    for all produce methods listed in ``produce_methods`` argument, in seconds.\niterations:\n    How many of internal iterations should the primitive do for both fitting and producing\n    outputs of all produce methods.\n\nReturns\n-------\nA dict of values for each produce method wrapped inside ``MultiCallResult``."
            },
            "get_params": {
                "kind": "OTHER",
                "arguments": [],
                "returns": "bbn_primitives.time_series.sequence_to_bot.Params",
                "description": "Returns parameters of this primitive.\n\nParameters are all parameters of the primitive which can potentially change during a life-time of\na primitive. Parameters which cannot are passed through constructor.\n\nParameters should include all data which is necessary to create a new instance of this primitive\nbehaving exactly the same as this instance, when the new instance is created by passing the same\nparameters to the class constructor and calling ``set_params``.\n\nNo other arguments to the method are allowed (except for private arguments).\n\nReturns\n-------\nAn instance of parameters."
            },
            "multi_produce": {
                "kind": "OTHER",
                "arguments": [
                    "produce_methods",
                    "inputs",
                    "timeout",
                    "iterations"
                ],
                "returns": "d3m.primitive_interfaces.base.MultiCallResult",
                "description": "A method calling multiple produce methods at once.\n\nWhen a primitive has multiple produce methods it is common that they might compute the\nsame internal results for same inputs but return different representations of those results.\nIf caller is interested in multiple of those representations, calling multiple produce\nmethods might lead to recomputing same internal results multiple times. To address this,\nthis method allows primitive author to implement an optimized version which computes\ninternal results only once for multiple calls of produce methods, but return those different\nrepresentations.\n\nIf any additional method arguments are added to primitive's produce method(s), they have\nto be added to this method as well. This method should accept an union of all arguments\naccepted by primitive's produce method(s) and then use them accordingly when computing\nresults.\n\nThe default implementation of this method just calls all produce methods listed in\n``produce_methods`` in order and is potentially inefficient.\n\nIf primitive should have been fitted before calling this method, but it has not been,\nprimitive should raise a ``PrimitiveNotFittedError`` exception.\n\nParameters\n----------\nproduce_methods:\n    A list of names of produce methods to call.\ninputs:\n    The inputs given to all produce methods.\ntimeout:\n    A maximum time this primitive should take to produce outputs for all produce methods\n    listed in ``produce_methods`` argument, in seconds.\niterations:\n    How many of internal iterations should the primitive do.\n\nReturns\n-------\nA dict of values for each produce method wrapped inside ``MultiCallResult``."
            },
            "produce": {
                "kind": "PRODUCE",
                "arguments": [
                    "inputs",
                    "timeout",
                    "iterations"
                ],
                "returns": "d3m.primitive_interfaces.base.CallResult[d3m.container.pandas.DataFrame]",
                "singleton": false,
                "inputs_across_samples": [],
                "description": "Arguments\n    - inputs: List( # Data\n                 List( # Segments\n                    [ context0, ..., contextN ], ... # for N-gram\n                 )\n               ),\n\nReturns:\n    - List(d3m_ndarray)\n\nParameters\n----------\ninputs:\n    The inputs of shape [num_inputs, ...].\ntimeout:\n    A maximum time this primitive should take to produce outputs during this method call, in seconds.\niterations:\n    How many of internal iterations should the primitive do.\n\nReturns\n-------\nThe outputs of shape [num_inputs, ...] wrapped inside ``CallResult``."
            },
            "set_params": {
                "kind": "OTHER",
                "arguments": [
                    "params"
                ],
                "returns": "NoneType",
                "description": "Sets parameters of this primitive.\n\nParameters are all parameters of the primitive which can potentially change during a life-time of\na primitive. Parameters which cannot are passed through constructor.\n\nNo other arguments to the method are allowed (except for private arguments).\n\nParameters\n----------\nparams:\n    An instance of parameters."
            },
            "set_training_data": {
                "kind": "OTHER",
                "arguments": [
                    "inputs"
                ],
                "returns": "NoneType",
                "description": "Sets training data of this primitive.\n\nParameters\n----------\ninputs:\n    The inputs."
            }
        },
        "class_attributes": {
            "logger": "logging.Logger",
            "metadata": "d3m.metadata.base.PrimitiveMetadata"
        },
        "instance_attributes": {
            "hyperparams": "d3m.metadata.hyperparams.Hyperparams",
            "random_seed": "int",
            "docker_containers": "typing.Dict[str, d3m.primitive_interfaces.base.DockerContainer]",
            "volumes": "typing.Dict[str, str]",
            "temporary_directory": "typing.Union[NoneType, str]"
        },
        "params": {
            "vocab": "dict"
        }
    },
    "structural_type": "bbn_primitives.time_series.sequence_to_bot.SequenceToBagOfTokens",
    "digest": "73155146798569a78992003589ecff730b21e9a6629016788c1db306e6e8133a"
}
