{
    "id": "e65cf537-cfd4-4da0-8afe-9dbe3e19d359",
    "schema": "https://metadata.datadrivendiscovery.org/schemas/v0/pipeline.json",
    "created": "2020-04-01T22:43:09.608425Z",
    "inputs": [
        {
            "name": "inputs"
        }
    ],
    "outputs": [
        {
            "data": "steps.4.produce",
            "name": "output predictions"
        }
    ],
    "steps": [
        {
            "type": "PRIMITIVE",
            "primitive": {
                "id": "f31f8c1f-d1c5-43e5-a4b2-2ae4a761ef2e",
                "version": "0.2.0",
                "python_path": "d3m.primitives.data_transformation.denormalize.Common",
                "name": "Denormalize datasets",
                "digest": "35e2d7ea40653c78c5800ea07373edda7a66071cb65e70b588ac6d16860fbedf"
            },
            "arguments": {
                "inputs": {
                    "type": "CONTAINER",
                    "data": "inputs.0"
                }
            },
            "outputs": [
                {
                    "id": "produce"
                }
            ]
        },
        {
            "type": "PRIMITIVE",
            "primitive": {
                "id": "4b42ce1e-9b98-4a25-b68e-fad13311eb65",
                "version": "0.3.0",
                "python_path": "d3m.primitives.data_transformation.dataset_to_dataframe.Common",
                "name": "Extract a DataFrame from a Dataset",
                "digest": "d8286a2c483874bbd71f6b68c409472428e6a8fa08a5d3e12690f054a4d07419"
            },
            "arguments": {
                "inputs": {
                    "type": "CONTAINER",
                    "data": "steps.0.produce"
                }
            },
            "outputs": [
                {
                    "id": "produce"
                }
            ]
        },
        {
            "type": "PRIMITIVE",
            "primitive": {
                "id": "7d3dee2f-326c-42a9-bafb-99abd7c4c251",
                "version": "0.1.0",
                "python_path": "d3m.primitives.feature_extraction.bag_of_words.UBC",
                "name": "Bag of Words feature extraction",
                "digest": "45bb8512b76352cb30d1d242b1ce6a55a288439e7e154be3a8924fde24bcd87b"
            },
            "arguments": {
                "inputs": {
                    "type": "CONTAINER",
                    "data": "steps.1.produce"
                }
            },
            "outputs": [
                {
                    "id": "produce"
                }
            ]
        },
        {
            "type": "PRIMITIVE",
            "primitive": {
                "id": "6e8cf1c9-fcef-45d9-9e30-d984f7b4b561",
                "version": "0.1.0",
                "python_path": "d3m.primitives.clustering.kmeans.UBC",
                "name": "KMeans Clustering",
                "digest": "720899a175444d49271c61ad06c2b763ed1be115772a1712659cf5c5dbfa6659"
            },
            "arguments": {
                "inputs": {
                    "type": "CONTAINER",
                    "data": "steps.2.produce"
                }
            },
            "outputs": [
                {
                    "id": "produce"
                }
            ],
            "hyperparams": {
                "n_clusters": {
                    "type": "VALUE",
                    "data": 4
                },
                "n_init": {
                    "type": "VALUE",
                    "data": 10
                }
            }
        },
        {
            "type": "PRIMITIVE",
            "primitive": {
                "id": "8d38b340-f83f-4877-baaa-162f8e551736",
                "version": "0.3.0",
                "python_path": "d3m.primitives.data_transformation.construct_predictions.Common",
                "name": "Construct pipeline predictions output",
                "digest": "ebd5ef709535e6b21759e08cb5cd19bffd040f1a16b6e4ce7bece1a1a97776d5"
            },
            "arguments": {
                "inputs": {
                    "type": "CONTAINER",
                    "data": "steps.3.produce"
                },
                "reference": {
                    "type": "CONTAINER",
                    "data": "steps.1.produce"
                }
            },
            "outputs": [
                {
                    "id": "produce"
                }
            ]
        }
    ],
    "digest": "1d6b9f8f5161d48203dc4cf7845a9ada47b8432ab8c6646d38cb34b69a19b96c"
}