{
    "id": "fc744603-5cce-48af-8de1-7ee2b4f3bf04",
    "schema": "https://metadata.datadrivendiscovery.org/schemas/v0/pipeline.json",
    "created": "2020-03-29T19:26:37.804777Z",
    "inputs": [
        {
            "name": "inputs"
        }
    ],
    "outputs": [
        {
            "data": "steps.7.produce",
            "name": "output predictions"
        }
    ],
    "steps": [
        {
            "type": "PRIMITIVE",
            "primitive": {
                "id": "f31f8c1f-d1c5-43e5-a4b2-2ae4a761ef2e",
                "version": "0.2.0",
                "python_path": "d3m.primitives.data_transformation.denormalize.Common",
                "name": "Denormalize datasets",
                "digest": "35e2d7ea40653c78c5800ea07373edda7a66071cb65e70b588ac6d16860fbedf"
            },
            "arguments": {
                "inputs": {
                    "type": "CONTAINER",
                    "data": "inputs.0"
                }
            },
            "outputs": [
                {
                    "id": "produce"
                }
            ]
        },
        {
            "type": "PRIMITIVE",
            "primitive": {
                "id": "4b42ce1e-9b98-4a25-b68e-fad13311eb65",
                "version": "0.3.0",
                "python_path": "d3m.primitives.data_transformation.dataset_to_dataframe.Common",
                "name": "Extract a DataFrame from a Dataset",
                "digest": "d8286a2c483874bbd71f6b68c409472428e6a8fa08a5d3e12690f054a4d07419"
            },
            "arguments": {
                "inputs": {
                    "type": "CONTAINER",
                    "data": "steps.0.produce"
                }
            },
            "outputs": [
                {
                    "id": "produce"
                }
            ]
        },
        {
            "type": "PRIMITIVE",
            "primitive": {
                "id": "f6d596f9-4bfd-4a9c-abb5-16d45ff4cff8",
                "version": "0.1.0",
                "python_path": "d3m.primitives.feature_extraction.resnet.UBC",
                "name": "ResNet Convolutional Neural Network",
                "digest": "6d820e699187aae9d29df0943ba4671979d25625eb818abd41fbc230ff134665"
            },
            "arguments": {
                "inputs": {
                    "type": "CONTAINER",
                    "data": "steps.1.produce"
                },
                "outputs": {
                    "type": "CONTAINER",
                    "data": "steps.1.produce"
                }
            },
            "outputs": [
                {
                    "id": "produce"
                }
            ],
            "hyperparams": {
                "feature_extract_only": {
                    "type": "VALUE",
                    "data": true
                },
                "include_top": {
                    "type": "VALUE",
                    "data": false
                }
            }
        },
        {
            "type": "PRIMITIVE",
            "primitive": {
                "id": "d510cb7a-1782-4f51-b44c-58f0236e47c7",
                "version": "0.6.0",
                "python_path": "d3m.primitives.data_transformation.column_parser.Common",
                "name": "Parses strings into their types",
                "digest": "a01add5a277d9ef44b9ed3c824dcd65bd19ab194ea8074590ded3b442d9375ad"
            },
            "arguments": {
                "inputs": {
                    "type": "CONTAINER",
                    "data": "steps.2.produce"
                }
            },
            "outputs": [
                {
                    "id": "produce"
                }
            ]
        },
        {
            "type": "PRIMITIVE",
            "primitive": {
                "id": "4503a4c6-42f7-45a1-a1d4-ed69699cf5e1",
                "version": "0.4.0",
                "python_path": "d3m.primitives.data_transformation.extract_columns_by_semantic_types.Common",
                "name": "Extracts columns by semantic type",
                "digest": "57c9bc91d16df9c8c6f3f8ef0fb17461f83c81f609e8cb6da4952a0a02dcd613"
            },
            "arguments": {
                "inputs": {
                    "type": "CONTAINER",
                    "data": "steps.3.produce"
                }
            },
            "outputs": [
                {
                    "id": "produce"
                }
            ],
            "hyperparams": {
                "semantic_types": {
                    "type": "VALUE",
                    "data": [
                        "https://metadata.datadrivendiscovery.org/types/Attribute"
                    ]
                }
            }
        },
        {
            "type": "PRIMITIVE",
            "primitive": {
                "id": "4503a4c6-42f7-45a1-a1d4-ed69699cf5e1",
                "version": "0.4.0",
                "python_path": "d3m.primitives.data_transformation.extract_columns_by_semantic_types.Common",
                "name": "Extracts columns by semantic type",
                "digest": "57c9bc91d16df9c8c6f3f8ef0fb17461f83c81f609e8cb6da4952a0a02dcd613"
            },
            "arguments": {
                "inputs": {
                    "type": "CONTAINER",
                    "data": "steps.1.produce"
                }
            },
            "outputs": [
                {
                    "id": "produce"
                }
            ],
            "hyperparams": {
                "semantic_types": {
                    "type": "VALUE",
                    "data": [
                        "https://metadata.datadrivendiscovery.org/types/SuggestedTarget"
                    ]
                }
            }
        },
        {
            "type": "PRIMITIVE",
            "primitive": {
                "id": "cdbb80e4-e9de-4caa-a710-16b5d727b959",
                "version": "0.1.0",
                "python_path": "d3m.primitives.regression.xgboost_gbtree.Common",
                "name": "XGBoost GBTree regressor",
                "digest": "888107b76140064bf3bbecf8ad31e07937b6b4c6277936461558e8cc459a5038"
            },
            "arguments": {
                "inputs": {
                    "type": "CONTAINER",
                    "data": "steps.4.produce"
                },
                "outputs": {
                    "type": "CONTAINER",
                    "data": "steps.5.produce"
                }
            },
            "outputs": [
                {
                    "id": "produce"
                }
            ]
        },
        {
            "type": "PRIMITIVE",
            "primitive": {
                "id": "8d38b340-f83f-4877-baaa-162f8e551736",
                "version": "0.3.0",
                "python_path": "d3m.primitives.data_transformation.construct_predictions.Common",
                "name": "Construct pipeline predictions output",
                "digest": "ebd5ef709535e6b21759e08cb5cd19bffd040f1a16b6e4ce7bece1a1a97776d5"
            },
            "arguments": {
                "inputs": {
                    "type": "CONTAINER",
                    "data": "steps.6.produce"
                },
                "reference": {
                    "type": "CONTAINER",
                    "data": "steps.1.produce"
                }
            },
            "outputs": [
                {
                    "id": "produce"
                }
            ]
        }
    ],
    "digest": "02d0200b42408e2929b0d50b141f0111da76992d2ca7b785b9959f83c6012c75"
}