{
    "id": "2bac81bf-2c3c-4a04-8a0f-b9eebcfd21f1",
    "schema": "https://metadata.datadrivendiscovery.org/schemas/v0/pipeline.json",
    "created": "2019-06-20T16:13:29.981663Z",
    "inputs": [
        {
            "name": "inputs"
        }
    ],
    "outputs": [
        {
            "data": "steps.0.produce",
            "name": "results"
        }
    ],
    "steps": [
        {
            "type": "PRIMITIVE",
            "primitive": {
                "id": "fde90b15-155a-3c2a-866c-4a19354cf0c7",
                "version": "0.1.0",
                "python_path": "d3m.primitives.vertex_nomination.spectral_graph_clustering.JHU",
                "name": "jhu.sgc",
                "digest": "5ab6778c20007ab245a4262c170d037dd741855a3377bf99ed4bccc4e3885ce6"
            },
            "arguments": {
                "inputs": {
                    "type": "CONTAINER",
                    "data": "inputs.0"
                }
            },
            "outputs": [
                {
                    "id": "produce"
                }
            ]
        }
    ],
    "digest": "e012c920c28baad51f590bfaf5e808e94d32468b49ff299c687b1bfc42bfba1c"
}